{
  "contentstack": {
    "apiKey": "blt63a58e60931a0006",
    "managementToken": "cs7ce07ae9c14d78961c474357"
  },
  "publish": {
    "environment": "bltbf6fe85aa7be378f"
  },
  "filters": {
    "environment": "bltbf6fe85aa7be378f",
    "game": {
      "origin": "games"
    }
  },
  "sitemapXMLAttributes": {
    "locationOrigin": "https://gaming.williamhill.com", 
    "game": {
      "locationPathname": "games",
      "changefreq": "daily",
      "priority": "0.5"
    },
    "theme": {
      "locationPathname": "themes",
      "changefreq": "daily",
      "priority": "0.5"
    }
  }
}